{
  "|home|plus9a|alci|arch-star-calamares|arch-star-calamares|pacman.conf" : {
    "enc" : "UTF-8",
    "top" : 94,
    "tab_size" : 4,
    "tab_spaces" : false,
    "crt" : "25,97,-1,-1,"
  },
  "|home|plus9a|alci|arch-star-calamares|arch-star-calamares|packages.x86_64" : {
    "enc" : "UTF-8",
    "top" : 197,
    "tab_size" : 4,
    "tab_spaces" : false,
    "crt" : "14,212,-1,-1,"
  },
  "|home|plus9a|.config|nitrogen|bg-saved.cfg" : {
    "lexer" : "Ini files",
    "enc" : "UTF-8",
    "tab_size" : 4,
    "tab_spaces" : false,
    "crt" : "6,1,-1,-1,"
  },
  "|home|plus9a|.config|nitrogen|nitrogen.cfg" : {
    "lexer" : "Ini files",
    "enc" : "UTF-8",
    "tab_size" : 4,
    "tab_spaces" : false,
    "crt" : "0,12,-1,-1,"
  }
}