{
  "groups" : 1,
  "gr" : {
    "panel" : "0,0",
    "pages" : "100,100,0,0,0,0,0,0,0,0,0,0,"
  },
  "tab_index" : {
    "g0" : 1,
    "g1" : 0,
    "g2" : 0,
    "g3" : 0,
    "g4" : 0,
    "g5" : 0,
    "g_active" : 0
  },
  "panels" : {
    "side_show" : true,
    "side_panel" : "Code tree",
    "side_size" : 38,
    "bottom_show" : false,
    "bottom_panel" : "",
    "bottom_size" : 120
  },
  "000" : {
    "modified" : false,
    "file" : "~/.config/nitrogen/bg-saved.cfg",
    "group" : 1,
    "kind" : "",
    "lexer" : "Ini files",
    "enc" : "UTF-8",
    "tab_size" : 4,
    "tab_spaces" : false,
    "crt" : "6,1,-1,-1,"
  },
  "001" : {
    "modified" : false,
    "file" : "~/.config/nitrogen/nitrogen.cfg",
    "group" : 1,
    "kind" : "",
    "lexer" : "Ini files",
    "enc" : "UTF-8",
    "tab_size" : 4,
    "tab_spaces" : false,
    "crt" : "0,12,-1,-1,"
  }
}